{
    "basename": "asr-intrinsics_09-2af35ec",
    "cmd": "lfortran --show-asr --no-color {infile} -o {outfile}",
    "infile": "tests/../integration_tests/intrinsics_09.f90",
    "infile_hash": "12c64a66c84a553de209e2227f56e1da90f0ce7e51cef682cb608cea",
    "outfile": null,
    "outfile_hash": null,
    "stdout": "asr-intrinsics_09-2af35ec.stdout",
    "stdout_hash": "4bb2bdaf69bed942eaa6f7fc1d3e9e601d18db98e4315e5caabf406d",
    "stderr": null,
    "stderr_hash": null,
    "returncode": 0
}