{
    "basename": "asr-intrinsics_13-07b50ad",
    "cmd": "lfortran --show-asr --no-color {infile} -o {outfile}",
    "infile": "tests/../integration_tests/intrinsics_13.f90",
    "infile_hash": "81414abcfd49da6701b1209b2e6596bb5a1ceba98d349a85961e21cf",
    "outfile": null,
    "outfile_hash": null,
    "stdout": "asr-intrinsics_13-07b50ad.stdout",
    "stdout_hash": "059bde1444bcf6f424d474181c9dcd9cb683dd7d0c24a1c393e2f141",
    "stderr": null,
    "stderr_hash": null,
    "returncode": 0
}