{
    "basename": "asr-callback_02-aec5457",
    "cmd": "lfortran --show-asr --no-color {infile} -o {outfile}",
    "infile": "tests/../integration_tests/callback_02.f90",
    "infile_hash": "880452ed794b4467313ba9a87318b17fe757a084b2a39129209153d3",
    "outfile": null,
    "outfile_hash": null,
    "stdout": "asr-callback_02-aec5457.stdout",
    "stdout_hash": "5000df49699b162d876033d7416932ec7a932f6239767165fcd9ac42",
    "stderr": null,
    "stderr_hash": null,
    "returncode": 0
}