{
    "basename": "asr-nested_02-8302041",
    "cmd": "lfortran --show-asr --no-color {infile} -o {outfile}",
    "infile": "tests/../integration_tests/nested_02.f90",
    "infile_hash": "ca630d38e8d596a7d4b2db926185e9ec245f6831a9c826a87d669557",
    "outfile": null,
    "outfile_hash": null,
    "stdout": "asr-nested_02-8302041.stdout",
    "stdout_hash": "a2755d48fdafd3abd2f59c86dd76e7af473d45edfd7a23b648b5d6bb",
    "stderr": null,
    "stderr_hash": null,
    "returncode": 0
}