{
    "basename": "asr-arrays_03_func-7c8d572",
    "cmd": "lfortran --show-asr --no-color {infile} -o {outfile}",
    "infile": "tests/../integration_tests/arrays_03_func.f90",
    "infile_hash": "9feab893fd240821f352bd8b0c12cb132cf39c706950d08f5a41cc54",
    "outfile": null,
    "outfile_hash": null,
    "stdout": "asr-arrays_03_func-7c8d572.stdout",
    "stdout_hash": "44c503d2cdae0eb4a45dfeb081b2059b6c98ba594dabfccd308fca41",
    "stderr": null,
    "stderr_hash": null,
    "returncode": 0
}