{
    "basename": "asr-const_kind_02-7c339b9",
    "cmd": "lfortran --show-asr --no-color {infile} -o {outfile}",
    "infile": "tests/../integration_tests/const_kind_02.f90",
    "infile_hash": "34f9ee65cf6d3992d028dd2cb7b90c3150acc9bdc0c9d0f6cbdfb6ab",
    "outfile": null,
    "outfile_hash": null,
    "stdout": "asr-const_kind_02-7c339b9.stdout",
    "stdout_hash": "b39d6942b971109ae8fdc91429df47a342c131a34cc9e384260b62bf",
    "stderr": null,
    "stderr_hash": null,
    "returncode": 0
}