{
    "basename": "asr-functions_05-adf0d8b",
    "cmd": "lfortran --show-asr --no-color {infile} -o {outfile}",
    "infile": "tests/../integration_tests/functions_05.f90",
    "infile_hash": "aaed4b4030a7238a12945d8984d3f1b470da8e8b6420d12f0689e8d2",
    "outfile": null,
    "outfile_hash": null,
    "stdout": "asr-functions_05-adf0d8b.stdout",
    "stdout_hash": "0ba938ba3e448dad18acc59d69af2f2b0305d9a95ed31a058c2166fc",
    "stderr": null,
    "stderr_hash": null,
    "returncode": 0
}