{
    "basename": "asr-interface_05-5639d22",
    "cmd": "lfortran --show-asr --no-color {infile} -o {outfile}",
    "infile": "tests/../integration_tests/interface_05.f90",
    "infile_hash": "a6509198926e454d1aa09c90a70bf6760452f8ed5923cebde47a166f",
    "outfile": null,
    "outfile_hash": null,
    "stdout": "asr-interface_05-5639d22.stdout",
    "stdout_hash": "f318966176ffbfe21940530d3f24295e60741eba5c3426c1b923a42d",
    "stderr": null,
    "stderr_hash": null,
    "returncode": 0
}