{
    "basename": "asr-subroutines_05-1398db3",
    "cmd": "lfortran --show-asr --no-color {infile} -o {outfile}",
    "infile": "tests/../integration_tests/subroutines_05.f90",
    "infile_hash": "ebc35a303d7f8c4ccb4f617a439a6e897e997f69d8f7654730af4676",
    "outfile": null,
    "outfile_hash": null,
    "stdout": "asr-subroutines_05-1398db3.stdout",
    "stdout_hash": "9d0db59cd0beb117e93c5c40e8b89f7b289c2bddfa98235468302fdf",
    "stderr": null,
    "stderr_hash": null,
    "returncode": 0
}