{
    "basename": "asr-interface_10-e9eb6ea",
    "cmd": "lfortran --show-asr --no-color {infile} -o {outfile}",
    "infile": "tests/../integration_tests/interface_10.f90",
    "infile_hash": "560959bf16e50f797232399c4319c14207b2c082cb5616339e6680eb",
    "outfile": null,
    "outfile_hash": null,
    "stdout": "asr-interface_10-e9eb6ea.stdout",
    "stdout_hash": "0ce06fdbc91777ab9a4908b23493eafd9b0ae56fd3cd41ff948720b0",
    "stderr": null,
    "stderr_hash": null,
    "returncode": 0
}