{
    "basename": "asr-int_dp-41a64fa",
    "cmd": "lfortran --show-asr --no-color {infile} -o {outfile}",
    "infile": "tests/../integration_tests/int_dp.f90",
    "infile_hash": "f59edf2644a27d68d7127283dbb961288e4041e2de16284795b100de",
    "outfile": null,
    "outfile_hash": null,
    "stdout": "asr-int_dp-41a64fa.stdout",
    "stdout_hash": "8c248d8513b9a88cdf062bb39577bf71352cadc79eb6e338a5eab505",
    "stderr": null,
    "stderr_hash": null,
    "returncode": 0
}