{
    "basename": "asr-subroutines_02-597f5e1",
    "cmd": "lfortran --show-asr --no-color {infile} -o {outfile}",
    "infile": "tests/../integration_tests/subroutines_02.f90",
    "infile_hash": "4484a05d86189244a0e0fd3d37b37c88ef5510e22bdd1b38633a1bc8",
    "outfile": null,
    "outfile_hash": null,
    "stdout": "asr-subroutines_02-597f5e1.stdout",
    "stdout_hash": "5401f02697ca84c3b650252ad6c1e025cd439162c6bbd34866618c5f",
    "stderr": null,
    "stderr_hash": null,
    "returncode": 0
}