{
    "basename": "asr-modules_02-74be421",
    "cmd": "lfortran --show-asr --no-color {infile} -o {outfile}",
    "infile": "tests/../integration_tests/modules_02.f90",
    "infile_hash": "887bcd0c13724335791cfd2de3e820c61e06230aa7bfc9ff56b446c1",
    "outfile": null,
    "outfile_hash": null,
    "stdout": "asr-modules_02-74be421.stdout",
    "stdout_hash": "fdcbf5b8d75a456757a309a4c8cf8c9c1eca04113aacbc9c4d0cf135",
    "stderr": null,
    "stderr_hash": null,
    "returncode": 0
}