{
    "basename": "asr-modules_11-dd72b29",
    "cmd": "lfortran --show-asr --no-color {infile} -o {outfile}",
    "infile": "tests/../integration_tests/modules_11.f90",
    "infile_hash": "3adf54a582ee98feab0583ed3cb0093df888f323e87e2cb7defcef52",
    "outfile": null,
    "outfile_hash": null,
    "stdout": "asr-modules_11-dd72b29.stdout",
    "stdout_hash": "3bb21f137443e4e04ed82f02c998fedbe6d83dbc63351567fa95319b",
    "stderr": null,
    "stderr_hash": null,
    "returncode": 0
}