{
    "basename": "asr-int_01-72c2ff1",
    "cmd": "lfortran --show-asr --no-color {infile} -o {outfile}",
    "infile": "tests/../integration_tests/int_01.f90",
    "infile_hash": "766d63f0b9cf518eb398acd6ceff8d8856637959cc0bf1890b03c89d",
    "outfile": null,
    "outfile_hash": null,
    "stdout": "asr-int_01-72c2ff1.stdout",
    "stdout_hash": "fff1f84b2173cd3279d3ca82f09a676f3e53d1ab413cb46829c93bf6",
    "stderr": null,
    "stderr_hash": null,
    "returncode": 0
}