{
    "basename": "asr-string_17-29e01e3",
    "cmd": "lfortran --show-asr --no-color {infile} -o {outfile}",
    "infile": "tests/../integration_tests/string_17.f90",
    "infile_hash": "67fb24db231ad8457efddf67c0f212da514b98c084beddec67834b77",
    "outfile": null,
    "outfile_hash": null,
    "stdout": "asr-string_17-29e01e3.stdout",
    "stdout_hash": "ef58491fd684225358b0159b1b8fb26dcfd6fd359c201b84ad433241",
    "stderr": null,
    "stderr_hash": null,
    "returncode": 0
}