{
    "basename": "asr-interface_04-9570e2b",
    "cmd": "lfortran --show-asr --no-color {infile} -o {outfile}",
    "infile": "tests/../integration_tests/interface_04.f90",
    "infile_hash": "14368b65a65dffde9d8d8ed4bc45203d43a32e68739474d9f18fff8b",
    "outfile": null,
    "outfile_hash": null,
    "stdout": "asr-interface_04-9570e2b.stdout",
    "stdout_hash": "ef46694240a992027370a903ca28534e8362b2bd73dfe280c2111c7a",
    "stderr": null,
    "stderr_hash": null,
    "returncode": 0
}