{
    "basename": "asr-intrinsics_12-ff7ce44",
    "cmd": "lfortran --show-asr --no-color {infile} -o {outfile}",
    "infile": "tests/../integration_tests/intrinsics_12.f90",
    "infile_hash": "7f3ef938f03d46035bb9c845b8ab1b15ac06b209b8b464f50486baf8",
    "outfile": null,
    "outfile_hash": null,
    "stdout": "asr-intrinsics_12-ff7ce44.stdout",
    "stdout_hash": "f4578b7946a9e87607a8a24fd3a393f61292084f7d2b1c3c46ebde4c",
    "stderr": null,
    "stderr_hash": null,
    "returncode": 0
}