{
    "basename": "asr-allocate_03-8219a72",
    "cmd": "lfortran --show-asr --no-color {infile} -o {outfile}",
    "infile": "tests/../integration_tests/allocate_03.f90",
    "infile_hash": "cc91318a8c55753718f222c8b5aa1722c4bcad1ff8252f830ce98647",
    "outfile": null,
    "outfile_hash": null,
    "stdout": "asr-allocate_03-8219a72.stdout",
    "stdout_hash": "6b653ea55aaafd61dbe59162c7f045a8229becc6ef3ff286b1410255",
    "stderr": null,
    "stderr_hash": null,
    "returncode": 0
}