{
    "basename": "asr-intrinsics_open_close_read_write-a696eca",
    "cmd": "lfortran --show-asr --no-color {infile} -o {outfile}",
    "infile": "tests/../integration_tests/intrinsics_open_close_read_write.f90",
    "infile_hash": "cec26375c7d2d0671d4fa46ff3b7dabf085d560fdcb291335a787940",
    "outfile": null,
    "outfile_hash": null,
    "stdout": "asr-intrinsics_open_close_read_write-a696eca.stdout",
    "stdout_hash": "30c51fc4819beabaf1a450173f37e0ba3b0b5faf1e14dad3b313ac87",
    "stderr": null,
    "stderr_hash": null,
    "returncode": 0
}