{
    "basename": "asr-nullify_02-1f0bd3a",
    "cmd": "lfortran --show-asr --no-color {infile} -o {outfile}",
    "infile": "tests/../integration_tests/nullify_02.f90",
    "infile_hash": "8603bbfc07290d14f0828e12a8b04c3521c007c844a4c901b4bb7483",
    "outfile": null,
    "outfile_hash": null,
    "stdout": "asr-nullify_02-1f0bd3a.stdout",
    "stdout_hash": "d40aca5548e5dec90bc5c8d196b1f6538598d5e368f07327ff28c17e",
    "stderr": null,
    "stderr_hash": null,
    "returncode": 0
}