{
    "basename": "asr-associate_02-ca5c9ec",
    "cmd": "lfortran --show-asr --no-color {infile} -o {outfile}",
    "infile": "tests/../integration_tests/associate_02.f90",
    "infile_hash": "dbb8b4f2546c33b093c6e6bff2a4af346405121ccb63b2bb42d761d6",
    "outfile": null,
    "outfile_hash": null,
    "stdout": "asr-associate_02-ca5c9ec.stdout",
    "stdout_hash": "53a08a1325647f8642db01014d0df0bf5e5b5257be7b8b0013113bb6",
    "stderr": null,
    "stderr_hash": null,
    "returncode": 0
}