{
    "basename": "asr-class_02-b56b852",
    "cmd": "lfortran --show-asr --no-color {infile} -o {outfile}",
    "infile": "tests/../integration_tests/class_02.f90",
    "infile_hash": "d9600a16766ae051943b344e946afd7523b8f9d66250d6cd908135cc",
    "outfile": null,
    "outfile_hash": null,
    "stdout": "asr-class_02-b56b852.stdout",
    "stdout_hash": "713ceb28ad421e43026bde2cc219962897ca0aa2fa991faf3f7121aa",
    "stderr": null,
    "stderr_hash": null,
    "returncode": 0
}