{
    "basename": "asr-complex_dp_param-b21353f",
    "cmd": "lfortran --show-asr --no-color {infile} -o {outfile}",
    "infile": "tests/../integration_tests/complex_dp_param.f90",
    "infile_hash": "0d4d9eaf5bcc2cee6a8b57ee6a66b5a10ced2edf6d64b5d2e2a0bcb8",
    "outfile": null,
    "outfile_hash": null,
    "stdout": "asr-complex_dp_param-b21353f.stdout",
    "stdout_hash": "38604152756559ed88a378c0f538121714fa627e3cfe4fced55b3df8",
    "stderr": null,
    "stderr_hash": null,
    "returncode": 0
}