{
    "basename": "asr-intrinsics_35-10733ec",
    "cmd": "lfortran --show-asr --no-color {infile} -o {outfile}",
    "infile": "tests/../integration_tests/intrinsics_35.f90",
    "infile_hash": "c7b8fd30b0095be177708abfdf7819703c29613112fb533412f0c498",
    "outfile": null,
    "outfile_hash": null,
    "stdout": "asr-intrinsics_35-10733ec.stdout",
    "stdout_hash": "23d18bb8112ea3b6ebbef27b637182fb83392f16ba5430762e5ae22b",
    "stderr": null,
    "stderr_hash": null,
    "returncode": 0
}