{
    "basename": "asr-string_11-0e4b62c",
    "cmd": "lfortran --show-asr --no-color {infile} -o {outfile}",
    "infile": "tests/../integration_tests/string_11.f90",
    "infile_hash": "eb36fd203a74190c7d98eeff5e136b53c72959fe49b4fed6558763d3",
    "outfile": null,
    "outfile_hash": null,
    "stdout": "asr-string_11-0e4b62c.stdout",
    "stdout_hash": "1edd14154d914e08a74f8069f56cc8a77cbeb85c7349ad3b6b109237",
    "stderr": null,
    "stderr_hash": null,
    "returncode": 0
}