{
    "basename": "asr-loop_unroll_large-c6b628b",
    "cmd": "lfortran --show-asr --no-color {infile} -o {outfile}",
    "infile": "tests/../integration_tests/loop_unroll_large.f90",
    "infile_hash": "6dea35d299ef0d2baadd87d2ed6132d3e57e15e85a4bef2d609d1d22",
    "outfile": null,
    "outfile_hash": null,
    "stdout": "asr-loop_unroll_large-c6b628b.stdout",
    "stdout_hash": "d1f3042b1895c7093ea799a1399a9d54080d496bed9841ee4780ae5f",
    "stderr": null,
    "stderr_hash": null,
    "returncode": 0
}