{
    "basename": "asr-int_02-e7de6a7",
    "cmd": "lfortran --show-asr --no-color {infile} -o {outfile}",
    "infile": "tests/../integration_tests/int_02.f90",
    "infile_hash": "e0a72e598a44c468855decece6cfbb029978d0775ad4aae887346aed",
    "outfile": null,
    "outfile_hash": null,
    "stdout": "asr-int_02-e7de6a7.stdout",
    "stdout_hash": "4906011cea8d1f82aea4ce47a5db443b895a7371e7f3f45c112abac9",
    "stderr": null,
    "stderr_hash": null,
    "returncode": 0
}