{
    "basename": "cpp-kokkos_program1-1d79f7a",
    "cmd": "lfortran --no-color --show-cpp {infile}",
    "infile": "tests/kokkos_program1.f90",
    "infile_hash": "81575b3ab7fd1a2dc16c67f0a5ff241d9057fed389befd1c3084d6ea",
    "outfile": null,
    "outfile_hash": null,
    "stdout": "cpp-kokkos_program1-1d79f7a.stdout",
    "stdout_hash": "8532c67ebe0cef3e147290065e12ca4796977f9c6ef05091f81d3793",
    "stderr": null,
    "stderr_hash": null,
    "returncode": 0
}