#include <iostream>
#include <string>
#include <vector>
#include <cassert>
#include <cmath>
#include <Kokkos_Core.hpp>
#include <lfortran_intrinsics.h>

template <typename T>
Kokkos::View<T*> from_std_vector(const std::vector<T> &v)
{
    Kokkos::View<T*> r("r", v.size());
    for (size_t i=0; i < v.size(); i++) {
        r(i) = v[i];
    }
    return r;
}

void add(float a, float b, float &c)
{
    c = a + b;
}

