{
    "basename": "cpp-array2-9a93c4d",
    "cmd": "lfortran --no-color --show-cpp {infile}",
    "infile": "tests/array2.f90",
    "infile_hash": "ec67f153c5f506f6a12ef94b06d43c7e9e86b9fc33c9c196029183f0",
    "outfile": null,
    "outfile_hash": null,
    "stdout": "cpp-array2-9a93c4d.stdout",
    "stdout_hash": "247cd9431eb3e95d9baa7be12534fd61820572e8b45ca97c63a26c65",
    "stderr": null,
    "stderr_hash": null,
    "returncode": 0
}