{
    "basename": "cpp-types_01-dfa3d3c",
    "cmd": "lfortran --no-color --show-cpp {infile}",
    "infile": "tests/../integration_tests/types_01.f90",
    "infile_hash": "551d14053f907f18f3ffcd47309e735206789f8bd754d11187c8fab3",
    "outfile": null,
    "outfile_hash": null,
    "stdout": "cpp-types_01-dfa3d3c.stdout",
    "stdout_hash": "7f1a47df480aab79ef7a8bbebe4c62ea36d54afe4beff0b52b9c4978",
    "stderr": null,
    "stderr_hash": null,
    "returncode": 0
}