{
    "basename": "cpp-program1-5e4637e",
    "cmd": "lfortran --no-color --show-cpp {infile}",
    "infile": "tests/program1.f90",
    "infile_hash": "ec4ccdfed01d45648718ca57a9ceb3e5aa82e55e57d8906636902e7b",
    "outfile": null,
    "outfile_hash": null,
    "stdout": "cpp-program1-5e4637e.stdout",
    "stdout_hash": "14b7bf69710aa3ff087d77231c0b12e147d22c92b9f467453cd720f0",
    "stderr": null,
    "stderr_hash": null,
    "returncode": 0
}