{
    "basename": "cpp-array3-a2f045b",
    "cmd": "lfortran --no-color --show-cpp {infile}",
    "infile": "tests/array3.f90",
    "infile_hash": "047ac01d7e3df52429d6889258f37213048937dae8611af6cbd9ecae",
    "outfile": null,
    "outfile_hash": null,
    "stdout": "cpp-array3-a2f045b.stdout",
    "stdout_hash": "4d8abe890a574cd1013c6d955083c7002a39cbe6ac294ec0e7632484",
    "stderr": null,
    "stderr_hash": null,
    "returncode": 0
}