{
    "basename": "cpp-types_05-06dea62",
    "cmd": "lfortran --no-color --show-cpp {infile}",
    "infile": "tests/../integration_tests/types_05.f90",
    "infile_hash": "96f8e950abafbc42b9d0438efdca0a8355bb2bd7b4b168ee23063521",
    "outfile": null,
    "outfile_hash": null,
    "stdout": "cpp-types_05-06dea62.stdout",
    "stdout_hash": "d535460557345ef23cf298825a289fa0806dd264f38c3119b9ad27fe",
    "stderr": null,
    "stderr_hash": null,
    "returncode": 0
}