{
    "basename": "cpp-types_02-0b28cb7",
    "cmd": "lfortran --no-color --show-cpp {infile}",
    "infile": "tests/../integration_tests/types_02.f90",
    "infile_hash": "6b9728dd8c74663d697504a17537aef00ed9210bf24fae6e7e0468bc",
    "outfile": null,
    "outfile_hash": null,
    "stdout": "cpp-types_02-0b28cb7.stdout",
    "stdout_hash": "9e129d488efc3568aa9c1dea06f7a3a897f909eadf007e95381e1cf0",
    "stderr": null,
    "stderr_hash": null,
    "returncode": 0
}