{
    "basename": "cpp-string_01-e28a827",
    "cmd": "lfortran --no-color --show-cpp {infile}",
    "infile": "tests/../integration_tests/string_01.f90",
    "infile_hash": "e7d4974d8a9b9704bf0c02d7943d916b40c591de3c9e89d30de28d7d",
    "outfile": null,
    "outfile_hash": null,
    "stdout": "cpp-string_01-e28a827.stdout",
    "stdout_hash": "d0a5e2c2e3a7581f8c370f41c459194e8c7b73cb4bee79287a0d2ccf",
    "stderr": null,
    "stderr_hash": null,
    "returncode": 0
}