; ModuleID = 'LFortran'
source_filename = "LFortran"

%array = type { float*, i32, %dimension_descriptor*, i1, i32 }
%dimension_descriptor = type { i32, i32, i32, i32 }

@0 = private unnamed_addr constant [10 x i8] c"%d %d %d\0A\00", align 1

declare i32 @__module_lfortran_intrinsic_builtin_int(%array*, i32*)

declare void @__module_lfortran_intrinsic_builtin_move_alloc(i32*, i32*)

define i32 @main() {
.entry:
  %boz_1 = alloca i32, align 4
  %boz_2 = alloca i32, align 4
  %boz_3 = alloca i32, align 4
  store i32 93, i32* %boz_1, align 4
  store i32 1255, i32* %boz_2, align 4
  store i32 2748, i32* %boz_3, align 4
  %0 = load i32, i32* %boz_1, align 4
  %1 = load i32, i32* %boz_2, align 4
  %2 = load i32, i32* %boz_3, align 4
  call void (i8*, ...) @_lfortran_printf(i8* getelementptr inbounds ([10 x i8], [10 x i8]* @0, i32 0, i32 0), i32 %0, i32 %1, i32 %2)
  ret i32 0
}

declare void @_lfortran_printf(i8*, ...)
