; ModuleID = 'LFortran'
source_filename = "LFortran"

%dimension_descriptor = type { i32, i32, i32, i32 }
%array.0 = type { i32*, i32, %dimension_descriptor*, i1, i32 }
%array = type { i32*, i32, %dimension_descriptor*, i1, i32 }

@0 = private unnamed_addr constant [4 x i8] c"%d\0A\00", align 1
@1 = private unnamed_addr constant [2 x i8] c"\0A\00", align 1
@2 = private unnamed_addr constant [4 x i8] c"%d\0A\00", align 1
@3 = private unnamed_addr constant [2 x i8] c"\0A\00", align 1
@4 = private unnamed_addr constant [4 x i8] c"%d\0A\00", align 1
@5 = private unnamed_addr constant [2 x i8] c"\0A\00", align 1
@6 = private unnamed_addr constant [4 x i8] c"%d\0A\00", align 1
@7 = private unnamed_addr constant [2 x i8] c"\0A\00", align 1
@8 = private unnamed_addr constant [4 x i8] c"%d\0A\00", align 1
@9 = private unnamed_addr constant [2 x i8] c"\0A\00", align 1
@10 = private unnamed_addr constant [2 x i8] c"\0A\00", align 1
@11 = private unnamed_addr constant [2 x i8] c"\0A\00", align 1

define i32 @__module_lfortran_intrinsic_builtin_lbound(%dimension_descriptor** %x, i32* %dim) {
.entry:
  %lbound = alloca i32, align 4
  %0 = load %dimension_descriptor*, %dimension_descriptor** %x, align 8
  %1 = load i32, i32* %dim, align 4
  %2 = sub i32 %1, 1
  %3 = getelementptr inbounds %dimension_descriptor, %dimension_descriptor* %0, i32 %2
  %4 = getelementptr %dimension_descriptor, %dimension_descriptor* %3, i32 0, i32 1
  %5 = load i32, i32* %4, align 4
  store i32 %5, i32* %lbound, align 4
  br label %return

return:                                           ; preds = %.entry
  %6 = load i32, i32* %lbound, align 4
  ret i32 %6
}

declare void @__module_lfortran_intrinsic_builtin_move_alloc(i32*, i32*)

define i32 @__module_lfortran_intrinsic_builtin_ubound(%dimension_descriptor** %x, i32* %dim) {
.entry:
  %ubound = alloca i32, align 4
  %0 = load %dimension_descriptor*, %dimension_descriptor** %x, align 8
  %1 = load i32, i32* %dim, align 4
  %2 = sub i32 %1, 1
  %3 = getelementptr inbounds %dimension_descriptor, %dimension_descriptor* %0, i32 %2
  %4 = getelementptr %dimension_descriptor, %dimension_descriptor* %3, i32 0, i32 2
  %5 = load i32, i32* %4, align 4
  store i32 %5, i32* %ubound, align 4
  br label %return

return:                                           ; preds = %.entry
  %6 = load i32, i32* %ubound, align 4
  ret i32 %6
}

define i32 @main() {
.entry:
  %"1_k" = alloca i32, align 4
  %"2_k" = alloca i32, align 4
  %"3_k" = alloca i32, align 4
  %a = alloca %array.0, align 8
  %0 = getelementptr %array.0, %array.0* %a, i32 0, i32 1
  store i32 0, i32* %0, align 4
  %1 = getelementptr %array.0, %array.0* %a, i32 0, i32 2
  %2 = alloca i32, align 4
  store i32 3, i32* %2, align 4
  %3 = load i32, i32* %2, align 4
  %4 = alloca %dimension_descriptor, i32 %3, align 8
  %5 = getelementptr %array.0, %array.0* %a, i32 0, i32 4
  store i32 3, i32* %5, align 4
  store %dimension_descriptor* %4, %dimension_descriptor** %1, align 8
  %6 = load %dimension_descriptor*, %dimension_descriptor** %1, align 8
  %7 = getelementptr inbounds %dimension_descriptor, %dimension_descriptor* %6, i32 0
  %8 = getelementptr %dimension_descriptor, %dimension_descriptor* %7, i32 0, i32 0
  %9 = getelementptr %dimension_descriptor, %dimension_descriptor* %7, i32 0, i32 1
  %10 = getelementptr %dimension_descriptor, %dimension_descriptor* %7, i32 0, i32 2
  %11 = getelementptr %dimension_descriptor, %dimension_descriptor* %7, i32 0, i32 3
  store i32 1, i32* %8, align 4
  store i32 1, i32* %9, align 4
  store i32 3, i32* %10, align 4
  %12 = load i32, i32* %10, align 4
  %13 = load i32, i32* %9, align 4
  %14 = sub i32 %12, %13
  %15 = add i32 %14, 1
  store i32 %15, i32* %11, align 4
  %16 = getelementptr inbounds %dimension_descriptor, %dimension_descriptor* %6, i32 1
  %17 = getelementptr %dimension_descriptor, %dimension_descriptor* %16, i32 0, i32 0
  %18 = getelementptr %dimension_descriptor, %dimension_descriptor* %16, i32 0, i32 1
  %19 = getelementptr %dimension_descriptor, %dimension_descriptor* %16, i32 0, i32 2
  %20 = getelementptr %dimension_descriptor, %dimension_descriptor* %16, i32 0, i32 3
  store i32 1, i32* %17, align 4
  store i32 1, i32* %18, align 4
  store i32 3, i32* %19, align 4
  %21 = load i32, i32* %19, align 4
  %22 = load i32, i32* %18, align 4
  %23 = sub i32 %21, %22
  %24 = add i32 %23, 1
  store i32 %24, i32* %20, align 4
  %25 = getelementptr inbounds %dimension_descriptor, %dimension_descriptor* %6, i32 2
  %26 = getelementptr %dimension_descriptor, %dimension_descriptor* %25, i32 0, i32 0
  %27 = getelementptr %dimension_descriptor, %dimension_descriptor* %25, i32 0, i32 1
  %28 = getelementptr %dimension_descriptor, %dimension_descriptor* %25, i32 0, i32 2
  %29 = getelementptr %dimension_descriptor, %dimension_descriptor* %25, i32 0, i32 3
  store i32 1, i32* %26, align 4
  store i32 1, i32* %27, align 4
  store i32 3, i32* %28, align 4
  %30 = load i32, i32* %28, align 4
  %31 = load i32, i32* %27, align 4
  %32 = sub i32 %30, %31
  %33 = add i32 %32, 1
  store i32 %33, i32* %29, align 4
  %34 = alloca i32, align 4
  store i32 27, i32* %34, align 4
  %35 = getelementptr %array.0, %array.0* %a, i32 0, i32 0
  %36 = load i32, i32* %34, align 4
  %37 = alloca i32, i32 %36, align 4
  store i32* %37, i32** %35, align 8
  %i = alloca i32, align 4
  %j = alloca i32, align 4
  %k = alloca i32, align 4
  %x = alloca %array, align 8
  %38 = getelementptr %array, %array* %x, i32 0, i32 1
  store i32 0, i32* %38, align 4
  %39 = getelementptr %array, %array* %x, i32 0, i32 2
  %40 = alloca i32, align 4
  store i32 1, i32* %40, align 4
  %41 = load i32, i32* %40, align 4
  %42 = alloca %dimension_descriptor, i32 %41, align 8
  %43 = getelementptr %array, %array* %x, i32 0, i32 4
  store i32 1, i32* %43, align 4
  store %dimension_descriptor* %42, %dimension_descriptor** %39, align 8
  %44 = load %dimension_descriptor*, %dimension_descriptor** %39, align 8
  %45 = getelementptr inbounds %dimension_descriptor, %dimension_descriptor* %44, i32 0
  %46 = getelementptr %dimension_descriptor, %dimension_descriptor* %45, i32 0, i32 0
  %47 = getelementptr %dimension_descriptor, %dimension_descriptor* %45, i32 0, i32 1
  %48 = getelementptr %dimension_descriptor, %dimension_descriptor* %45, i32 0, i32 2
  %49 = getelementptr %dimension_descriptor, %dimension_descriptor* %45, i32 0, i32 3
  store i32 1, i32* %46, align 4
  store i32 1, i32* %47, align 4
  store i32 6, i32* %48, align 4
  %50 = load i32, i32* %48, align 4
  %51 = load i32, i32* %47, align 4
  %52 = sub i32 %50, %51
  %53 = add i32 %52, 1
  store i32 %53, i32* %49, align 4
  %54 = alloca i32, align 4
  store i32 6, i32* %54, align 4
  %55 = getelementptr %array, %array* %x, i32 0, i32 0
  %56 = load i32, i32* %54, align 4
  %57 = alloca i32, i32 %56, align 4
  store i32* %57, i32** %55, align 8
  store i32 4, i32* %j, align 4
  store i32 0, i32* %i, align 4
  br label %loop.head

loop.head:                                        ; preds = %loop.body, %.entry
  %58 = load i32, i32* %i, align 4
  %59 = add i32 %58, 1
  %60 = icmp sle i32 %59, 6
  br i1 %60, label %loop.body, label %loop.end

loop.body:                                        ; preds = %loop.head
  %61 = load i32, i32* %i, align 4
  %62 = add i32 %61, 1
  store i32 %62, i32* %i, align 4
  %63 = load i32, i32* %i, align 4
  %64 = sub i32 %63, 1
  %65 = mul i32 %64, 1
  %66 = add i32 %65, 1
  %67 = add i32 %66, 0
  %68 = getelementptr %array, %array* %x, i32 0, i32 2
  %69 = load %dimension_descriptor*, %dimension_descriptor** %68, align 8
  %70 = getelementptr inbounds %dimension_descriptor, %dimension_descriptor* %69, i32 0
  %71 = getelementptr %dimension_descriptor, %dimension_descriptor* %70, i32 0, i32 1
  %72 = load i32, i32* %71, align 4
  %73 = sub i32 %67, %72
  %74 = mul i32 1, %73
  %75 = add i32 0, %74
  %76 = getelementptr %dimension_descriptor, %dimension_descriptor* %70, i32 0, i32 3
  %77 = load i32, i32* %76, align 4
  %78 = mul i32 1, %77
  %79 = getelementptr %array, %array* %x, i32 0, i32 0
  %80 = load i32*, i32** %79, align 8
  %81 = getelementptr inbounds i32, i32* %80, i32 %75
  %82 = load i32, i32* %i, align 4
  %83 = mul i32 %82, 2
  store i32 %83, i32* %81, align 4
  br label %loop.head

loop.end:                                         ; preds = %loop.head
  %84 = alloca %dimension_descriptor*, align 8
  %85 = getelementptr %array, %array* %x, i32 0, i32 2
  %86 = load %dimension_descriptor*, %dimension_descriptor** %85, align 8
  store %dimension_descriptor* %86, %dimension_descriptor** %84, align 8
  %87 = alloca i32, align 4
  store i32 1, i32* %87, align 4
  %88 = call i32 @__module_lfortran_intrinsic_builtin_lbound(%dimension_descriptor** %84, i32* %87)
  %89 = sub i32 %88, 1
  store i32 %89, i32* %"1_k", align 4
  br label %loop.head1

loop.head1:                                       ; preds = %loop.body2, %loop.end
  %90 = load i32, i32* %"1_k", align 4
  %91 = add i32 %90, 1
  %92 = alloca %dimension_descriptor*, align 8
  %93 = getelementptr %array, %array* %x, i32 0, i32 2
  %94 = load %dimension_descriptor*, %dimension_descriptor** %93, align 8
  store %dimension_descriptor* %94, %dimension_descriptor** %92, align 8
  %95 = alloca i32, align 4
  store i32 1, i32* %95, align 4
  %96 = call i32 @__module_lfortran_intrinsic_builtin_ubound(%dimension_descriptor** %92, i32* %95)
  %97 = icmp sle i32 %91, %96
  br i1 %97, label %loop.body2, label %loop.end3

loop.body2:                                       ; preds = %loop.head1
  %98 = load i32, i32* %"1_k", align 4
  %99 = add i32 %98, 1
  store i32 %99, i32* %"1_k", align 4
  %100 = load i32, i32* %"1_k", align 4
  %101 = getelementptr %array, %array* %x, i32 0, i32 2
  %102 = load %dimension_descriptor*, %dimension_descriptor** %101, align 8
  %103 = getelementptr inbounds %dimension_descriptor, %dimension_descriptor* %102, i32 0
  %104 = getelementptr %dimension_descriptor, %dimension_descriptor* %103, i32 0, i32 1
  %105 = load i32, i32* %104, align 4
  %106 = sub i32 %100, %105
  %107 = mul i32 1, %106
  %108 = add i32 0, %107
  %109 = getelementptr %dimension_descriptor, %dimension_descriptor* %103, i32 0, i32 3
  %110 = load i32, i32* %109, align 4
  %111 = mul i32 1, %110
  %112 = getelementptr %array, %array* %x, i32 0, i32 0
  %113 = load i32*, i32** %112, align 8
  %114 = getelementptr inbounds i32, i32* %113, i32 %108
  %115 = load i32, i32* %114, align 4
  call void (i8*, ...) @_lfortran_printf(i8* getelementptr inbounds ([4 x i8], [4 x i8]* @0, i32 0, i32 0), i32 %115)
  br label %loop.head1

loop.end3:                                        ; preds = %loop.head1
  call void (i8*, ...) @_lfortran_printf(i8* getelementptr inbounds ([2 x i8], [2 x i8]* @1, i32 0, i32 0))
  store i32 0, i32* %i, align 4
  br label %loop.head4

loop.head4:                                       ; preds = %loop.body5, %loop.end3
  %116 = load i32, i32* %i, align 4
  %117 = add i32 %116, 1
  %118 = icmp sle i32 %117, 3
  br i1 %118, label %loop.body5, label %loop.end6

loop.body5:                                       ; preds = %loop.head4
  %119 = load i32, i32* %i, align 4
  %120 = add i32 %119, 1
  store i32 %120, i32* %i, align 4
  %121 = load i32, i32* %i, align 4
  %122 = sub i32 %121, 1
  %123 = mul i32 %122, 2
  %124 = add i32 %123, 1
  %125 = add i32 %124, 0
  %126 = getelementptr %array, %array* %x, i32 0, i32 2
  %127 = load %dimension_descriptor*, %dimension_descriptor** %126, align 8
  %128 = getelementptr inbounds %dimension_descriptor, %dimension_descriptor* %127, i32 0
  %129 = getelementptr %dimension_descriptor, %dimension_descriptor* %128, i32 0, i32 1
  %130 = load i32, i32* %129, align 4
  %131 = sub i32 %125, %130
  %132 = mul i32 1, %131
  %133 = add i32 0, %132
  %134 = getelementptr %dimension_descriptor, %dimension_descriptor* %128, i32 0, i32 3
  %135 = load i32, i32* %134, align 4
  %136 = mul i32 1, %135
  %137 = getelementptr %array, %array* %x, i32 0, i32 0
  %138 = load i32*, i32** %137, align 8
  %139 = getelementptr inbounds i32, i32* %138, i32 %133
  %140 = load i32, i32* %i, align 4
  %141 = add i32 %140, 1
  store i32 %141, i32* %139, align 4
  %142 = load i32, i32* %i, align 4
  %143 = sub i32 %142, 1
  %144 = mul i32 %143, 2
  %145 = add i32 %144, 1
  %146 = add i32 %145, 1
  %147 = getelementptr %array, %array* %x, i32 0, i32 2
  %148 = load %dimension_descriptor*, %dimension_descriptor** %147, align 8
  %149 = getelementptr inbounds %dimension_descriptor, %dimension_descriptor* %148, i32 0
  %150 = getelementptr %dimension_descriptor, %dimension_descriptor* %149, i32 0, i32 1
  %151 = load i32, i32* %150, align 4
  %152 = sub i32 %146, %151
  %153 = mul i32 1, %152
  %154 = add i32 0, %153
  %155 = getelementptr %dimension_descriptor, %dimension_descriptor* %149, i32 0, i32 3
  %156 = load i32, i32* %155, align 4
  %157 = mul i32 1, %156
  %158 = getelementptr %array, %array* %x, i32 0, i32 0
  %159 = load i32*, i32** %158, align 8
  %160 = getelementptr inbounds i32, i32* %159, i32 %154
  %161 = load i32, i32* %i, align 4
  %162 = mul i32 %161, 2
  store i32 %162, i32* %160, align 4
  br label %loop.head4

loop.end6:                                        ; preds = %loop.head4
  %163 = alloca %dimension_descriptor*, align 8
  %164 = getelementptr %array, %array* %x, i32 0, i32 2
  %165 = load %dimension_descriptor*, %dimension_descriptor** %164, align 8
  store %dimension_descriptor* %165, %dimension_descriptor** %163, align 8
  %166 = alloca i32, align 4
  store i32 1, i32* %166, align 4
  %167 = call i32 @__module_lfortran_intrinsic_builtin_lbound(%dimension_descriptor** %163, i32* %166)
  %168 = sub i32 %167, 1
  store i32 %168, i32* %"1_k", align 4
  br label %loop.head7

loop.head7:                                       ; preds = %loop.body8, %loop.end6
  %169 = load i32, i32* %"1_k", align 4
  %170 = add i32 %169, 1
  %171 = alloca %dimension_descriptor*, align 8
  %172 = getelementptr %array, %array* %x, i32 0, i32 2
  %173 = load %dimension_descriptor*, %dimension_descriptor** %172, align 8
  store %dimension_descriptor* %173, %dimension_descriptor** %171, align 8
  %174 = alloca i32, align 4
  store i32 1, i32* %174, align 4
  %175 = call i32 @__module_lfortran_intrinsic_builtin_ubound(%dimension_descriptor** %171, i32* %174)
  %176 = icmp sle i32 %170, %175
  br i1 %176, label %loop.body8, label %loop.end9

loop.body8:                                       ; preds = %loop.head7
  %177 = load i32, i32* %"1_k", align 4
  %178 = add i32 %177, 1
  store i32 %178, i32* %"1_k", align 4
  %179 = load i32, i32* %"1_k", align 4
  %180 = getelementptr %array, %array* %x, i32 0, i32 2
  %181 = load %dimension_descriptor*, %dimension_descriptor** %180, align 8
  %182 = getelementptr inbounds %dimension_descriptor, %dimension_descriptor* %181, i32 0
  %183 = getelementptr %dimension_descriptor, %dimension_descriptor* %182, i32 0, i32 1
  %184 = load i32, i32* %183, align 4
  %185 = sub i32 %179, %184
  %186 = mul i32 1, %185
  %187 = add i32 0, %186
  %188 = getelementptr %dimension_descriptor, %dimension_descriptor* %182, i32 0, i32 3
  %189 = load i32, i32* %188, align 4
  %190 = mul i32 1, %189
  %191 = getelementptr %array, %array* %x, i32 0, i32 0
  %192 = load i32*, i32** %191, align 8
  %193 = getelementptr inbounds i32, i32* %192, i32 %187
  %194 = load i32, i32* %193, align 4
  call void (i8*, ...) @_lfortran_printf(i8* getelementptr inbounds ([4 x i8], [4 x i8]* @2, i32 0, i32 0), i32 %194)
  br label %loop.head7

loop.end9:                                        ; preds = %loop.head7
  call void (i8*, ...) @_lfortran_printf(i8* getelementptr inbounds ([2 x i8], [2 x i8]* @3, i32 0, i32 0))
  store i32 0, i32* %i, align 4
  br label %loop.head10

loop.head10:                                      ; preds = %loop.body11, %loop.end9
  %195 = load i32, i32* %i, align 4
  %196 = add i32 %195, 1
  %197 = icmp sle i32 %196, 2
  br i1 %197, label %loop.body11, label %loop.end12

loop.body11:                                      ; preds = %loop.head10
  %198 = load i32, i32* %i, align 4
  %199 = add i32 %198, 1
  store i32 %199, i32* %i, align 4
  %200 = load i32, i32* %i, align 4
  %201 = sub i32 %200, 1
  %202 = mul i32 %201, 3
  %203 = add i32 %202, 1
  %204 = add i32 %203, 0
  %205 = getelementptr %array, %array* %x, i32 0, i32 2
  %206 = load %dimension_descriptor*, %dimension_descriptor** %205, align 8
  %207 = getelementptr inbounds %dimension_descriptor, %dimension_descriptor* %206, i32 0
  %208 = getelementptr %dimension_descriptor, %dimension_descriptor* %207, i32 0, i32 1
  %209 = load i32, i32* %208, align 4
  %210 = sub i32 %204, %209
  %211 = mul i32 1, %210
  %212 = add i32 0, %211
  %213 = getelementptr %dimension_descriptor, %dimension_descriptor* %207, i32 0, i32 3
  %214 = load i32, i32* %213, align 4
  %215 = mul i32 1, %214
  %216 = getelementptr %array, %array* %x, i32 0, i32 0
  %217 = load i32*, i32** %216, align 8
  %218 = getelementptr inbounds i32, i32* %217, i32 %212
  %219 = load i32, i32* %i, align 4
  %220 = add i32 %219, 1
  store i32 %220, i32* %218, align 4
  %221 = load i32, i32* %i, align 4
  %222 = sub i32 %221, 1
  %223 = mul i32 %222, 3
  %224 = add i32 %223, 1
  %225 = add i32 %224, 1
  %226 = getelementptr %array, %array* %x, i32 0, i32 2
  %227 = load %dimension_descriptor*, %dimension_descriptor** %226, align 8
  %228 = getelementptr inbounds %dimension_descriptor, %dimension_descriptor* %227, i32 0
  %229 = getelementptr %dimension_descriptor, %dimension_descriptor* %228, i32 0, i32 1
  %230 = load i32, i32* %229, align 4
  %231 = sub i32 %225, %230
  %232 = mul i32 1, %231
  %233 = add i32 0, %232
  %234 = getelementptr %dimension_descriptor, %dimension_descriptor* %228, i32 0, i32 3
  %235 = load i32, i32* %234, align 4
  %236 = mul i32 1, %235
  %237 = getelementptr %array, %array* %x, i32 0, i32 0
  %238 = load i32*, i32** %237, align 8
  %239 = getelementptr inbounds i32, i32* %238, i32 %233
  %240 = load i32, i32* %i, align 4
  %241 = sitofp i32 %240 to float
  %242 = call float @llvm.pow.f32(float %241, float 2.000000e+00)
  %243 = fptosi float %242 to i32
  store i32 %243, i32* %239, align 4
  %244 = load i32, i32* %i, align 4
  %245 = sub i32 %244, 1
  %246 = mul i32 %245, 3
  %247 = add i32 %246, 1
  %248 = add i32 %247, 2
  %249 = getelementptr %array, %array* %x, i32 0, i32 2
  %250 = load %dimension_descriptor*, %dimension_descriptor** %249, align 8
  %251 = getelementptr inbounds %dimension_descriptor, %dimension_descriptor* %250, i32 0
  %252 = getelementptr %dimension_descriptor, %dimension_descriptor* %251, i32 0, i32 1
  %253 = load i32, i32* %252, align 4
  %254 = sub i32 %248, %253
  %255 = mul i32 1, %254
  %256 = add i32 0, %255
  %257 = getelementptr %dimension_descriptor, %dimension_descriptor* %251, i32 0, i32 3
  %258 = load i32, i32* %257, align 4
  %259 = mul i32 1, %258
  %260 = getelementptr %array, %array* %x, i32 0, i32 0
  %261 = load i32*, i32** %260, align 8
  %262 = getelementptr inbounds i32, i32* %261, i32 %256
  %263 = load i32, i32* %i, align 4
  %264 = mul i32 %263, 2
  store i32 %264, i32* %262, align 4
  br label %loop.head10

loop.end12:                                       ; preds = %loop.head10
  %265 = alloca %dimension_descriptor*, align 8
  %266 = getelementptr %array, %array* %x, i32 0, i32 2
  %267 = load %dimension_descriptor*, %dimension_descriptor** %266, align 8
  store %dimension_descriptor* %267, %dimension_descriptor** %265, align 8
  %268 = alloca i32, align 4
  store i32 1, i32* %268, align 4
  %269 = call i32 @__module_lfortran_intrinsic_builtin_lbound(%dimension_descriptor** %265, i32* %268)
  %270 = sub i32 %269, 1
  store i32 %270, i32* %"1_k", align 4
  br label %loop.head13

loop.head13:                                      ; preds = %loop.body14, %loop.end12
  %271 = load i32, i32* %"1_k", align 4
  %272 = add i32 %271, 1
  %273 = alloca %dimension_descriptor*, align 8
  %274 = getelementptr %array, %array* %x, i32 0, i32 2
  %275 = load %dimension_descriptor*, %dimension_descriptor** %274, align 8
  store %dimension_descriptor* %275, %dimension_descriptor** %273, align 8
  %276 = alloca i32, align 4
  store i32 1, i32* %276, align 4
  %277 = call i32 @__module_lfortran_intrinsic_builtin_ubound(%dimension_descriptor** %273, i32* %276)
  %278 = icmp sle i32 %272, %277
  br i1 %278, label %loop.body14, label %loop.end15

loop.body14:                                      ; preds = %loop.head13
  %279 = load i32, i32* %"1_k", align 4
  %280 = add i32 %279, 1
  store i32 %280, i32* %"1_k", align 4
  %281 = load i32, i32* %"1_k", align 4
  %282 = getelementptr %array, %array* %x, i32 0, i32 2
  %283 = load %dimension_descriptor*, %dimension_descriptor** %282, align 8
  %284 = getelementptr inbounds %dimension_descriptor, %dimension_descriptor* %283, i32 0
  %285 = getelementptr %dimension_descriptor, %dimension_descriptor* %284, i32 0, i32 1
  %286 = load i32, i32* %285, align 4
  %287 = sub i32 %281, %286
  %288 = mul i32 1, %287
  %289 = add i32 0, %288
  %290 = getelementptr %dimension_descriptor, %dimension_descriptor* %284, i32 0, i32 3
  %291 = load i32, i32* %290, align 4
  %292 = mul i32 1, %291
  %293 = getelementptr %array, %array* %x, i32 0, i32 0
  %294 = load i32*, i32** %293, align 8
  %295 = getelementptr inbounds i32, i32* %294, i32 %289
  %296 = load i32, i32* %295, align 4
  call void (i8*, ...) @_lfortran_printf(i8* getelementptr inbounds ([4 x i8], [4 x i8]* @4, i32 0, i32 0), i32 %296)
  br label %loop.head13

loop.end15:                                       ; preds = %loop.head13
  call void (i8*, ...) @_lfortran_printf(i8* getelementptr inbounds ([2 x i8], [2 x i8]* @5, i32 0, i32 0))
  store i32 1, i32* %i, align 4
  br label %loop.head16

loop.head16:                                      ; preds = %loop.body17, %loop.end15
  %297 = load i32, i32* %i, align 4
  %298 = add i32 %297, 1
  %299 = icmp sle i32 %298, 2
  br i1 %299, label %loop.body17, label %loop.end18

loop.body17:                                      ; preds = %loop.head16
  %300 = load i32, i32* %i, align 4
  %301 = add i32 %300, 1
  store i32 %301, i32* %i, align 4
  %302 = load i32, i32* %i, align 4
  %303 = sub i32 %302, 2
  %304 = mul i32 %303, 6
  %305 = add i32 %304, 1
  %306 = add i32 %305, 0
  %307 = getelementptr %array, %array* %x, i32 0, i32 2
  %308 = load %dimension_descriptor*, %dimension_descriptor** %307, align 8
  %309 = getelementptr inbounds %dimension_descriptor, %dimension_descriptor* %308, i32 0
  %310 = getelementptr %dimension_descriptor, %dimension_descriptor* %309, i32 0, i32 1
  %311 = load i32, i32* %310, align 4
  %312 = sub i32 %306, %311
  %313 = mul i32 1, %312
  %314 = add i32 0, %313
  %315 = getelementptr %dimension_descriptor, %dimension_descriptor* %309, i32 0, i32 3
  %316 = load i32, i32* %315, align 4
  %317 = mul i32 1, %316
  %318 = getelementptr %array, %array* %x, i32 0, i32 0
  %319 = load i32*, i32** %318, align 8
  %320 = getelementptr inbounds i32, i32* %319, i32 %314
  %321 = load i32, i32* %i, align 4
  %322 = mul i32 2, %321
  store i32 %322, i32* %320, align 4
  %323 = load i32, i32* %i, align 4
  %324 = sub i32 %323, 2
  %325 = mul i32 %324, 6
  %326 = add i32 %325, 1
  %327 = add i32 %326, 1
  %328 = getelementptr %array, %array* %x, i32 0, i32 2
  %329 = load %dimension_descriptor*, %dimension_descriptor** %328, align 8
  %330 = getelementptr inbounds %dimension_descriptor, %dimension_descriptor* %329, i32 0
  %331 = getelementptr %dimension_descriptor, %dimension_descriptor* %330, i32 0, i32 1
  %332 = load i32, i32* %331, align 4
  %333 = sub i32 %327, %332
  %334 = mul i32 1, %333
  %335 = add i32 0, %334
  %336 = getelementptr %dimension_descriptor, %dimension_descriptor* %330, i32 0, i32 3
  %337 = load i32, i32* %336, align 4
  %338 = mul i32 1, %337
  %339 = getelementptr %array, %array* %x, i32 0, i32 0
  %340 = load i32*, i32** %339, align 8
  %341 = getelementptr inbounds i32, i32* %340, i32 %335
  %342 = load i32, i32* %i, align 4
  %343 = mul i32 3, %342
  store i32 %343, i32* %341, align 4
  %344 = load i32, i32* %i, align 4
  %345 = sub i32 %344, 2
  %346 = mul i32 %345, 6
  %347 = add i32 %346, 1
  %348 = add i32 %347, 2
  %349 = getelementptr %array, %array* %x, i32 0, i32 2
  %350 = load %dimension_descriptor*, %dimension_descriptor** %349, align 8
  %351 = getelementptr inbounds %dimension_descriptor, %dimension_descriptor* %350, i32 0
  %352 = getelementptr %dimension_descriptor, %dimension_descriptor* %351, i32 0, i32 1
  %353 = load i32, i32* %352, align 4
  %354 = sub i32 %348, %353
  %355 = mul i32 1, %354
  %356 = add i32 0, %355
  %357 = getelementptr %dimension_descriptor, %dimension_descriptor* %351, i32 0, i32 3
  %358 = load i32, i32* %357, align 4
  %359 = mul i32 1, %358
  %360 = getelementptr %array, %array* %x, i32 0, i32 0
  %361 = load i32*, i32** %360, align 8
  %362 = getelementptr inbounds i32, i32* %361, i32 %356
  %363 = load i32, i32* %i, align 4
  %364 = mul i32 4, %363
  store i32 %364, i32* %362, align 4
  %365 = load i32, i32* %i, align 4
  %366 = sub i32 %365, 2
  %367 = mul i32 %366, 6
  %368 = add i32 %367, 1
  %369 = add i32 %368, 3
  %370 = getelementptr %array, %array* %x, i32 0, i32 2
  %371 = load %dimension_descriptor*, %dimension_descriptor** %370, align 8
  %372 = getelementptr inbounds %dimension_descriptor, %dimension_descriptor* %371, i32 0
  %373 = getelementptr %dimension_descriptor, %dimension_descriptor* %372, i32 0, i32 1
  %374 = load i32, i32* %373, align 4
  %375 = sub i32 %369, %374
  %376 = mul i32 1, %375
  %377 = add i32 0, %376
  %378 = getelementptr %dimension_descriptor, %dimension_descriptor* %372, i32 0, i32 3
  %379 = load i32, i32* %378, align 4
  %380 = mul i32 1, %379
  %381 = getelementptr %array, %array* %x, i32 0, i32 0
  %382 = load i32*, i32** %381, align 8
  %383 = getelementptr inbounds i32, i32* %382, i32 %377
  %384 = load i32, i32* %i, align 4
  %385 = add i32 %384, 1
  store i32 %385, i32* %383, align 4
  %386 = load i32, i32* %i, align 4
  %387 = sub i32 %386, 2
  %388 = mul i32 %387, 6
  %389 = add i32 %388, 1
  %390 = add i32 %389, 4
  %391 = getelementptr %array, %array* %x, i32 0, i32 2
  %392 = load %dimension_descriptor*, %dimension_descriptor** %391, align 8
  %393 = getelementptr inbounds %dimension_descriptor, %dimension_descriptor* %392, i32 0
  %394 = getelementptr %dimension_descriptor, %dimension_descriptor* %393, i32 0, i32 1
  %395 = load i32, i32* %394, align 4
  %396 = sub i32 %390, %395
  %397 = mul i32 1, %396
  %398 = add i32 0, %397
  %399 = getelementptr %dimension_descriptor, %dimension_descriptor* %393, i32 0, i32 3
  %400 = load i32, i32* %399, align 4
  %401 = mul i32 1, %400
  %402 = getelementptr %array, %array* %x, i32 0, i32 0
  %403 = load i32*, i32** %402, align 8
  %404 = getelementptr inbounds i32, i32* %403, i32 %398
  %405 = load i32, i32* %i, align 4
  %406 = sitofp i32 %405 to float
  %407 = call float @llvm.pow.f32(float %406, float 2.000000e+00)
  %408 = fptosi float %407 to i32
  store i32 %408, i32* %404, align 4
  %409 = load i32, i32* %i, align 4
  %410 = sub i32 %409, 2
  %411 = mul i32 %410, 6
  %412 = add i32 %411, 1
  %413 = add i32 %412, 5
  %414 = getelementptr %array, %array* %x, i32 0, i32 2
  %415 = load %dimension_descriptor*, %dimension_descriptor** %414, align 8
  %416 = getelementptr inbounds %dimension_descriptor, %dimension_descriptor* %415, i32 0
  %417 = getelementptr %dimension_descriptor, %dimension_descriptor* %416, i32 0, i32 1
  %418 = load i32, i32* %417, align 4
  %419 = sub i32 %413, %418
  %420 = mul i32 1, %419
  %421 = add i32 0, %420
  %422 = getelementptr %dimension_descriptor, %dimension_descriptor* %416, i32 0, i32 3
  %423 = load i32, i32* %422, align 4
  %424 = mul i32 1, %423
  %425 = getelementptr %array, %array* %x, i32 0, i32 0
  %426 = load i32*, i32** %425, align 8
  %427 = getelementptr inbounds i32, i32* %426, i32 %421
  %428 = load i32, i32* %i, align 4
  %429 = mul i32 %428, 2
  store i32 %429, i32* %427, align 4
  br label %loop.head16

loop.end18:                                       ; preds = %loop.head16
  %430 = alloca %dimension_descriptor*, align 8
  %431 = getelementptr %array, %array* %x, i32 0, i32 2
  %432 = load %dimension_descriptor*, %dimension_descriptor** %431, align 8
  store %dimension_descriptor* %432, %dimension_descriptor** %430, align 8
  %433 = alloca i32, align 4
  store i32 1, i32* %433, align 4
  %434 = call i32 @__module_lfortran_intrinsic_builtin_lbound(%dimension_descriptor** %430, i32* %433)
  %435 = sub i32 %434, 1
  store i32 %435, i32* %"1_k", align 4
  br label %loop.head19

loop.head19:                                      ; preds = %loop.body20, %loop.end18
  %436 = load i32, i32* %"1_k", align 4
  %437 = add i32 %436, 1
  %438 = alloca %dimension_descriptor*, align 8
  %439 = getelementptr %array, %array* %x, i32 0, i32 2
  %440 = load %dimension_descriptor*, %dimension_descriptor** %439, align 8
  store %dimension_descriptor* %440, %dimension_descriptor** %438, align 8
  %441 = alloca i32, align 4
  store i32 1, i32* %441, align 4
  %442 = call i32 @__module_lfortran_intrinsic_builtin_ubound(%dimension_descriptor** %438, i32* %441)
  %443 = icmp sle i32 %437, %442
  br i1 %443, label %loop.body20, label %loop.end21

loop.body20:                                      ; preds = %loop.head19
  %444 = load i32, i32* %"1_k", align 4
  %445 = add i32 %444, 1
  store i32 %445, i32* %"1_k", align 4
  %446 = load i32, i32* %"1_k", align 4
  %447 = getelementptr %array, %array* %x, i32 0, i32 2
  %448 = load %dimension_descriptor*, %dimension_descriptor** %447, align 8
  %449 = getelementptr inbounds %dimension_descriptor, %dimension_descriptor* %448, i32 0
  %450 = getelementptr %dimension_descriptor, %dimension_descriptor* %449, i32 0, i32 1
  %451 = load i32, i32* %450, align 4
  %452 = sub i32 %446, %451
  %453 = mul i32 1, %452
  %454 = add i32 0, %453
  %455 = getelementptr %dimension_descriptor, %dimension_descriptor* %449, i32 0, i32 3
  %456 = load i32, i32* %455, align 4
  %457 = mul i32 1, %456
  %458 = getelementptr %array, %array* %x, i32 0, i32 0
  %459 = load i32*, i32** %458, align 8
  %460 = getelementptr inbounds i32, i32* %459, i32 %454
  %461 = load i32, i32* %460, align 4
  call void (i8*, ...) @_lfortran_printf(i8* getelementptr inbounds ([4 x i8], [4 x i8]* @6, i32 0, i32 0), i32 %461)
  br label %loop.head19

loop.end21:                                       ; preds = %loop.head19
  call void (i8*, ...) @_lfortran_printf(i8* getelementptr inbounds ([2 x i8], [2 x i8]* @7, i32 0, i32 0))
  %462 = alloca %dimension_descriptor*, align 8
  %463 = getelementptr %array.0, %array.0* %a, i32 0, i32 2
  %464 = load %dimension_descriptor*, %dimension_descriptor** %463, align 8
  store %dimension_descriptor* %464, %dimension_descriptor** %462, align 8
  %465 = alloca i32, align 4
  store i32 3, i32* %465, align 4
  %466 = call i32 @__module_lfortran_intrinsic_builtin_lbound(%dimension_descriptor** %462, i32* %465)
  %467 = sub i32 %466, 1
  store i32 %467, i32* %"1_k", align 4
  br label %loop.head22

loop.head22:                                      ; preds = %loop.end29, %loop.end21
  %468 = load i32, i32* %"1_k", align 4
  %469 = add i32 %468, 1
  %470 = alloca %dimension_descriptor*, align 8
  %471 = getelementptr %array.0, %array.0* %a, i32 0, i32 2
  %472 = load %dimension_descriptor*, %dimension_descriptor** %471, align 8
  store %dimension_descriptor* %472, %dimension_descriptor** %470, align 8
  %473 = alloca i32, align 4
  store i32 3, i32* %473, align 4
  %474 = call i32 @__module_lfortran_intrinsic_builtin_ubound(%dimension_descriptor** %470, i32* %473)
  %475 = icmp sle i32 %469, %474
  br i1 %475, label %loop.body23, label %loop.end30

loop.body23:                                      ; preds = %loop.head22
  %476 = load i32, i32* %"1_k", align 4
  %477 = add i32 %476, 1
  store i32 %477, i32* %"1_k", align 4
  %478 = alloca %dimension_descriptor*, align 8
  %479 = getelementptr %array.0, %array.0* %a, i32 0, i32 2
  %480 = load %dimension_descriptor*, %dimension_descriptor** %479, align 8
  store %dimension_descriptor* %480, %dimension_descriptor** %478, align 8
  %481 = alloca i32, align 4
  store i32 3, i32* %481, align 4
  %482 = call i32 @__module_lfortran_intrinsic_builtin_lbound(%dimension_descriptor** %478, i32* %481)
  %483 = sub i32 %482, 1
  store i32 %483, i32* %"2_k", align 4
  br label %loop.head24

loop.head24:                                      ; preds = %loop.end28, %loop.body23
  %484 = load i32, i32* %"2_k", align 4
  %485 = add i32 %484, 1
  %486 = alloca %dimension_descriptor*, align 8
  %487 = getelementptr %array.0, %array.0* %a, i32 0, i32 2
  %488 = load %dimension_descriptor*, %dimension_descriptor** %487, align 8
  store %dimension_descriptor* %488, %dimension_descriptor** %486, align 8
  %489 = alloca i32, align 4
  store i32 3, i32* %489, align 4
  %490 = call i32 @__module_lfortran_intrinsic_builtin_ubound(%dimension_descriptor** %486, i32* %489)
  %491 = icmp sle i32 %485, %490
  br i1 %491, label %loop.body25, label %loop.end29

loop.body25:                                      ; preds = %loop.head24
  %492 = load i32, i32* %"2_k", align 4
  %493 = add i32 %492, 1
  store i32 %493, i32* %"2_k", align 4
  %494 = alloca %dimension_descriptor*, align 8
  %495 = getelementptr %array.0, %array.0* %a, i32 0, i32 2
  %496 = load %dimension_descriptor*, %dimension_descriptor** %495, align 8
  store %dimension_descriptor* %496, %dimension_descriptor** %494, align 8
  %497 = alloca i32, align 4
  store i32 3, i32* %497, align 4
  %498 = call i32 @__module_lfortran_intrinsic_builtin_lbound(%dimension_descriptor** %494, i32* %497)
  %499 = sub i32 %498, 1
  store i32 %499, i32* %"3_k", align 4
  br label %loop.head26

loop.head26:                                      ; preds = %loop.body27, %loop.body25
  %500 = load i32, i32* %"3_k", align 4
  %501 = add i32 %500, 1
  %502 = alloca %dimension_descriptor*, align 8
  %503 = getelementptr %array.0, %array.0* %a, i32 0, i32 2
  %504 = load %dimension_descriptor*, %dimension_descriptor** %503, align 8
  store %dimension_descriptor* %504, %dimension_descriptor** %502, align 8
  %505 = alloca i32, align 4
  store i32 3, i32* %505, align 4
  %506 = call i32 @__module_lfortran_intrinsic_builtin_ubound(%dimension_descriptor** %502, i32* %505)
  %507 = icmp sle i32 %501, %506
  br i1 %507, label %loop.body27, label %loop.end28

loop.body27:                                      ; preds = %loop.head26
  %508 = load i32, i32* %"3_k", align 4
  %509 = add i32 %508, 1
  store i32 %509, i32* %"3_k", align 4
  %510 = load i32, i32* %"1_k", align 4
  %511 = load i32, i32* %"2_k", align 4
  %512 = load i32, i32* %"3_k", align 4
  %513 = getelementptr %array.0, %array.0* %a, i32 0, i32 2
  %514 = load %dimension_descriptor*, %dimension_descriptor** %513, align 8
  %515 = getelementptr inbounds %dimension_descriptor, %dimension_descriptor* %514, i32 0
  %516 = getelementptr %dimension_descriptor, %dimension_descriptor* %515, i32 0, i32 1
  %517 = load i32, i32* %516, align 4
  %518 = sub i32 %510, %517
  %519 = mul i32 1, %518
  %520 = add i32 0, %519
  %521 = getelementptr %dimension_descriptor, %dimension_descriptor* %515, i32 0, i32 3
  %522 = load i32, i32* %521, align 4
  %523 = mul i32 1, %522
  %524 = getelementptr inbounds %dimension_descriptor, %dimension_descriptor* %514, i32 1
  %525 = getelementptr %dimension_descriptor, %dimension_descriptor* %524, i32 0, i32 1
  %526 = load i32, i32* %525, align 4
  %527 = sub i32 %511, %526
  %528 = mul i32 %523, %527
  %529 = add i32 %520, %528
  %530 = getelementptr %dimension_descriptor, %dimension_descriptor* %524, i32 0, i32 3
  %531 = load i32, i32* %530, align 4
  %532 = mul i32 %523, %531
  %533 = getelementptr inbounds %dimension_descriptor, %dimension_descriptor* %514, i32 2
  %534 = getelementptr %dimension_descriptor, %dimension_descriptor* %533, i32 0, i32 1
  %535 = load i32, i32* %534, align 4
  %536 = sub i32 %512, %535
  %537 = mul i32 %532, %536
  %538 = add i32 %529, %537
  %539 = getelementptr %dimension_descriptor, %dimension_descriptor* %533, i32 0, i32 3
  %540 = load i32, i32* %539, align 4
  %541 = mul i32 %532, %540
  %542 = getelementptr %array.0, %array.0* %a, i32 0, i32 0
  %543 = load i32*, i32** %542, align 8
  %544 = getelementptr inbounds i32, i32* %543, i32 %538
  store i32 7, i32* %544, align 4
  br label %loop.head26

loop.end28:                                       ; preds = %loop.head26
  br label %loop.head24

loop.end29:                                       ; preds = %loop.head24
  br label %loop.head22

loop.end30:                                       ; preds = %loop.head22
  %545 = alloca %dimension_descriptor*, align 8
  %546 = getelementptr %array.0, %array.0* %a, i32 0, i32 2
  %547 = load %dimension_descriptor*, %dimension_descriptor** %546, align 8
  store %dimension_descriptor* %547, %dimension_descriptor** %545, align 8
  %548 = alloca i32, align 4
  store i32 1, i32* %548, align 4
  %549 = call i32 @__module_lfortran_intrinsic_builtin_lbound(%dimension_descriptor** %545, i32* %548)
  %550 = sub i32 %549, 1
  store i32 %550, i32* %"1_k", align 4
  br label %loop.head31

loop.head31:                                      ; preds = %loop.end38, %loop.end30
  %551 = load i32, i32* %"1_k", align 4
  %552 = add i32 %551, 1
  %553 = alloca %dimension_descriptor*, align 8
  %554 = getelementptr %array.0, %array.0* %a, i32 0, i32 2
  %555 = load %dimension_descriptor*, %dimension_descriptor** %554, align 8
  store %dimension_descriptor* %555, %dimension_descriptor** %553, align 8
  %556 = alloca i32, align 4
  store i32 1, i32* %556, align 4
  %557 = call i32 @__module_lfortran_intrinsic_builtin_ubound(%dimension_descriptor** %553, i32* %556)
  %558 = icmp sle i32 %552, %557
  br i1 %558, label %loop.body32, label %loop.end39

loop.body32:                                      ; preds = %loop.head31
  %559 = load i32, i32* %"1_k", align 4
  %560 = add i32 %559, 1
  store i32 %560, i32* %"1_k", align 4
  %561 = alloca %dimension_descriptor*, align 8
  %562 = getelementptr %array.0, %array.0* %a, i32 0, i32 2
  %563 = load %dimension_descriptor*, %dimension_descriptor** %562, align 8
  store %dimension_descriptor* %563, %dimension_descriptor** %561, align 8
  %564 = alloca i32, align 4
  store i32 2, i32* %564, align 4
  %565 = call i32 @__module_lfortran_intrinsic_builtin_lbound(%dimension_descriptor** %561, i32* %564)
  %566 = sub i32 %565, 1
  store i32 %566, i32* %"2_k", align 4
  br label %loop.head33

loop.head33:                                      ; preds = %loop.end37, %loop.body32
  %567 = load i32, i32* %"2_k", align 4
  %568 = add i32 %567, 1
  %569 = alloca %dimension_descriptor*, align 8
  %570 = getelementptr %array.0, %array.0* %a, i32 0, i32 2
  %571 = load %dimension_descriptor*, %dimension_descriptor** %570, align 8
  store %dimension_descriptor* %571, %dimension_descriptor** %569, align 8
  %572 = alloca i32, align 4
  store i32 2, i32* %572, align 4
  %573 = call i32 @__module_lfortran_intrinsic_builtin_ubound(%dimension_descriptor** %569, i32* %572)
  %574 = icmp sle i32 %568, %573
  br i1 %574, label %loop.body34, label %loop.end38

loop.body34:                                      ; preds = %loop.head33
  %575 = load i32, i32* %"2_k", align 4
  %576 = add i32 %575, 1
  store i32 %576, i32* %"2_k", align 4
  %577 = alloca %dimension_descriptor*, align 8
  %578 = getelementptr %array.0, %array.0* %a, i32 0, i32 2
  %579 = load %dimension_descriptor*, %dimension_descriptor** %578, align 8
  store %dimension_descriptor* %579, %dimension_descriptor** %577, align 8
  %580 = alloca i32, align 4
  store i32 3, i32* %580, align 4
  %581 = call i32 @__module_lfortran_intrinsic_builtin_lbound(%dimension_descriptor** %577, i32* %580)
  %582 = sub i32 %581, 1
  store i32 %582, i32* %"3_k", align 4
  br label %loop.head35

loop.head35:                                      ; preds = %loop.body36, %loop.body34
  %583 = load i32, i32* %"3_k", align 4
  %584 = add i32 %583, 1
  %585 = alloca %dimension_descriptor*, align 8
  %586 = getelementptr %array.0, %array.0* %a, i32 0, i32 2
  %587 = load %dimension_descriptor*, %dimension_descriptor** %586, align 8
  store %dimension_descriptor* %587, %dimension_descriptor** %585, align 8
  %588 = alloca i32, align 4
  store i32 3, i32* %588, align 4
  %589 = call i32 @__module_lfortran_intrinsic_builtin_ubound(%dimension_descriptor** %585, i32* %588)
  %590 = icmp sle i32 %584, %589
  br i1 %590, label %loop.body36, label %loop.end37

loop.body36:                                      ; preds = %loop.head35
  %591 = load i32, i32* %"3_k", align 4
  %592 = add i32 %591, 1
  store i32 %592, i32* %"3_k", align 4
  %593 = load i32, i32* %"1_k", align 4
  %594 = load i32, i32* %"2_k", align 4
  %595 = load i32, i32* %"3_k", align 4
  %596 = getelementptr %array.0, %array.0* %a, i32 0, i32 2
  %597 = load %dimension_descriptor*, %dimension_descriptor** %596, align 8
  %598 = getelementptr inbounds %dimension_descriptor, %dimension_descriptor* %597, i32 0
  %599 = getelementptr %dimension_descriptor, %dimension_descriptor* %598, i32 0, i32 1
  %600 = load i32, i32* %599, align 4
  %601 = sub i32 %593, %600
  %602 = mul i32 1, %601
  %603 = add i32 0, %602
  %604 = getelementptr %dimension_descriptor, %dimension_descriptor* %598, i32 0, i32 3
  %605 = load i32, i32* %604, align 4
  %606 = mul i32 1, %605
  %607 = getelementptr inbounds %dimension_descriptor, %dimension_descriptor* %597, i32 1
  %608 = getelementptr %dimension_descriptor, %dimension_descriptor* %607, i32 0, i32 1
  %609 = load i32, i32* %608, align 4
  %610 = sub i32 %594, %609
  %611 = mul i32 %606, %610
  %612 = add i32 %603, %611
  %613 = getelementptr %dimension_descriptor, %dimension_descriptor* %607, i32 0, i32 3
  %614 = load i32, i32* %613, align 4
  %615 = mul i32 %606, %614
  %616 = getelementptr inbounds %dimension_descriptor, %dimension_descriptor* %597, i32 2
  %617 = getelementptr %dimension_descriptor, %dimension_descriptor* %616, i32 0, i32 1
  %618 = load i32, i32* %617, align 4
  %619 = sub i32 %595, %618
  %620 = mul i32 %615, %619
  %621 = add i32 %612, %620
  %622 = getelementptr %dimension_descriptor, %dimension_descriptor* %616, i32 0, i32 3
  %623 = load i32, i32* %622, align 4
  %624 = mul i32 %615, %623
  %625 = getelementptr %array.0, %array.0* %a, i32 0, i32 0
  %626 = load i32*, i32** %625, align 8
  %627 = getelementptr inbounds i32, i32* %626, i32 %621
  %628 = load i32, i32* %627, align 4
  call void (i8*, ...) @_lfortran_printf(i8* getelementptr inbounds ([4 x i8], [4 x i8]* @8, i32 0, i32 0), i32 %628)
  br label %loop.head35

loop.end37:                                       ; preds = %loop.head35
  call void (i8*, ...) @_lfortran_printf(i8* getelementptr inbounds ([2 x i8], [2 x i8]* @9, i32 0, i32 0))
  br label %loop.head33

loop.end38:                                       ; preds = %loop.head33
  call void (i8*, ...) @_lfortran_printf(i8* getelementptr inbounds ([2 x i8], [2 x i8]* @10, i32 0, i32 0))
  br label %loop.head31

loop.end39:                                       ; preds = %loop.head31
  call void (i8*, ...) @_lfortran_printf(i8* getelementptr inbounds ([2 x i8], [2 x i8]* @11, i32 0, i32 0))
  ret i32 0
}

declare void @_lfortran_printf(i8*, ...)

; Function Attrs: nounwind readnone speculatable willreturn
declare float @llvm.pow.f32(float, float) #0

attributes #0 = { nounwind readnone speculatable willreturn }
