{
    "basename": "llvm-intrinsics_03-0771f1b",
    "cmd": "lfortran --no-color --show-llvm {infile} -o {outfile}",
    "infile": "tests/../integration_tests/intrinsics_03.f90",
    "infile_hash": "eda277452cad2d7bc3ef98963677fc276c09ce4d517756982a0d921d",
    "outfile": null,
    "outfile_hash": null,
    "stdout": "llvm-intrinsics_03-0771f1b.stdout",
    "stdout_hash": "81074e3f435a24fe6bad261f65909bd252650bb265e5703ecf8514cb",
    "stderr": null,
    "stderr_hash": null,
    "returncode": 0
}