{
    "basename": "llvm-arrays_op_4-df4e84d",
    "cmd": "lfortran --no-color --show-llvm {infile} -o {outfile}",
    "infile": "tests/../integration_tests/arrays_op_4.f90",
    "infile_hash": "217baeb5f0a4438c9af1044fbcb9991796f27fdc7f8cb69be5213c8f",
    "outfile": null,
    "outfile_hash": null,
    "stdout": "llvm-arrays_op_4-df4e84d.stdout",
    "stdout_hash": "b1fb8e7ffbc3d4684cfe8122806cdc7240b5bfc69621b8a43ffc9ce9",
    "stderr": null,
    "stderr_hash": null,
    "returncode": 0
}