{
    "basename": "llvm-intrinsics_06-15c0eef",
    "cmd": "lfortran --no-color --show-llvm {infile} -o {outfile}",
    "infile": "tests/../integration_tests/intrinsics_06.f90",
    "infile_hash": "159c10373053040b4614f7468175543b4735da80807fbb7ef9bad071",
    "outfile": null,
    "outfile_hash": null,
    "stdout": "llvm-intrinsics_06-15c0eef.stdout",
    "stdout_hash": "0860128888244b0905027005cacc1ea14e6298c7d23b98db76b2c913",
    "stderr": null,
    "stderr_hash": null,
    "returncode": 0
}