{
    "basename": "llvm-string_11-e6c763f",
    "cmd": "lfortran --no-color --show-llvm {infile} -o {outfile}",
    "infile": "tests/../integration_tests/string_11.f90",
    "infile_hash": "eb36fd203a74190c7d98eeff5e136b53c72959fe49b4fed6558763d3",
    "outfile": null,
    "outfile_hash": null,
    "stdout": "llvm-string_11-e6c763f.stdout",
    "stdout_hash": "a099083a8301ed541eed44acc049b0551c2b2c58e88bb016f389774f",
    "stderr": null,
    "stderr_hash": null,
    "returncode": 0
}