{
    "basename": "pass_inline_function_calls-functions_07-cc20830",
    "cmd": "lfortran --pass=inline_function_calls --show-asr --no-color {infile} -o {outfile}",
    "infile": "tests/../integration_tests/functions_07.f90",
    "infile_hash": "7353db41b76b1bb72bf3a708e5b317dec74af0ada289020227f88626",
    "outfile": null,
    "outfile_hash": null,
    "stdout": "pass_inline_function_calls-functions_07-cc20830.stdout",
    "stdout_hash": "aab8f971325f447eb67852ef893ecc01f2d40c5766b82982aa084def",
    "stderr": null,
    "stderr_hash": null,
    "returncode": 0
}