{
    "basename": "pass_inline_function_calls-functions_05-73805d1",
    "cmd": "lfortran --pass=inline_function_calls --show-asr --no-color {infile} -o {outfile}",
    "infile": "tests/../integration_tests/functions_05.f90",
    "infile_hash": "aaed4b4030a7238a12945d8984d3f1b470da8e8b6420d12f0689e8d2",
    "outfile": null,
    "outfile_hash": null,
    "stdout": "pass_inline_function_calls-functions_05-73805d1.stdout",
    "stdout_hash": "fbde81f561db1f7a5e47c42c93f09c540ca6308a7a854b994921d76b",
    "stderr": null,
    "stderr_hash": null,
    "returncode": 0
}