{
    "basename": "pass_loop_unroll-loop_unroll_small-462d647",
    "cmd": "lfortran --pass=loop_unroll --show-asr --no-color {infile} -o {outfile}",
    "infile": "tests/../integration_tests/loop_unroll_small.f90",
    "infile_hash": "5a308fd86dceda8d2b6a3c4fcb2412bf4d1b3f043105d06956960db8",
    "outfile": null,
    "outfile_hash": null,
    "stdout": "pass_loop_unroll-loop_unroll_small-462d647.stdout",
    "stdout_hash": "48b1ad7565ec18e539288106c559d5248cfabce8180ced59638e6a44",
    "stderr": null,
    "stderr_hash": null,
    "returncode": 0
}