{
    "basename": "pass_flip_sign-flip_sign-16b288c",
    "cmd": "lfortran --pass=flip_sign --show-asr --no-color {infile} -o {outfile}",
    "infile": "tests/../integration_tests/flip_sign.f90",
    "infile_hash": "12739178c354710c6f6bbeb834508a7932ae385c1340b0c08bca8b8d",
    "outfile": null,
    "outfile_hash": null,
    "stdout": "pass_flip_sign-flip_sign-16b288c.stdout",
    "stdout_hash": "1a7327b1316496bb3e94b7f012ec200d05b5602dd1a508ba4a0217c1",
    "stderr": null,
    "stderr_hash": null,
    "returncode": 0
}